[gd_resource type="StandardMaterial3D" load_steps=3 format=3 uid="uid://c2dafitp8op44"]

[ext_resource type="Texture2D" uid="uid://cek578irbojkj" path="res://base-environments/youth_room/import/textures/Wood005_2K_Color.jpg" id="1_jmr2s"]
[ext_resource type="Texture2D" uid="uid://c6a7mt7uh4vh1" path="res://base-environments/youth_room/import/textures/Wood005_2K_NormalDX.jpg" id="2_3udni"]

[resource]
resource_name = "dark_wood"
cull_mode = 2
vertex_color_use_as_albedo = true
albedo_color = Color(0.906332, 0.906332, 0.906332, 1)
albedo_texture = ExtResource("1_jmr2s")
roughness = 0.44
normal_enabled = true
normal_texture = ExtResource("2_3udni")
