[gd_resource type="StandardMaterial3D" load_steps=4 format=3 uid="uid://ddx8gbx1u5y74"]

[ext_resource type="Texture2D" uid="uid://s6snykgkt2cc" path="res://base-environments/youth_room/import/textures/Scene_-_Root_baseColor.png" id="1_ku8ab"]
[ext_resource type="Texture2D" uid="uid://cjlswv5rusy5p" path="res://base-environments/youth_room/import/textures/Scene_-_Root_metallicRoughness.png" id="2_3i6ww"]
[ext_resource type="Texture2D" uid="uid://cis2ionj4b06e" path="res://base-environments/youth_room/import/textures/Scene_-_Root_normal.png" id="3_8eg3d"]

[resource]
resource_name = "Drawer"
cull_mode = 2
vertex_color_use_as_albedo = true
albedo_texture = ExtResource("1_ku8ab")
metallic = 1.0
metallic_texture = ExtResource("2_3i6ww")
metallic_texture_channel = 1
roughness_texture = ExtResource("2_3i6ww")
normal_enabled = true
normal_texture = ExtResource("3_8eg3d")
