[gd_resource type="StandardMaterial3D" load_steps=3 format=3 uid="uid://dn6n6ca60gktv"]

[ext_resource type="Texture2D" uid="uid://4utnkevs7llx" path="res://base-environments/youth_room/import/textures/gi_albedo.png" id="1_iuuet"]
[ext_resource type="Texture2D" uid="uid://cnu1h0a32nfwn" path="res://base-environments/youth_room/import/textures/gi_normal.png" id="2_5kua2"]

[resource]
resource_name = "gi"
cull_mode = 2
vertex_color_use_as_albedo = true
albedo_color = Color(0.906332, 0.906332, 0.906332, 1)
albedo_texture = ExtResource("1_iuuet")
roughness = 0.640909
normal_enabled = true
normal_texture = ExtResource("2_5kua2")
ao_enabled = true
ao_texture = ExtResource("1_iuuet")
