[gd_resource type="StandardMaterial3D" load_steps=3 format=3 uid="uid://ca7tmkkulmr5n"]

[ext_resource type="Texture2D" uid="uid://b6a2bk7e4r402" path="res://base-environments/youth_room/import/textures/wood_flooring.png" id="1_47j14"]
[ext_resource type="Texture2D" uid="uid://d4krraqfbkyp5" path="res://base-environments/youth_room/import/textures/wood_flooring_rough.png" id="2_1wdh7"]

[resource]
resource_name = "wood_flooring"
vertex_color_use_as_albedo = true
albedo_color = Color(0.906332, 0.906332, 0.906332, 1)
albedo_texture = ExtResource("1_47j14")
roughness = 0.87
roughness_texture = ExtResource("2_1wdh7")
roughness_texture_channel = 2
