<?xml version="1.0" encoding="UTF-8" standalone="no"?>
<!-- Created with Inkscape (http://www.inkscape.org/) -->

<svg
   width="1024"
   height="1024"
   viewBox="0 0 270.93333 270.93333"
   version="1.1"
   id="svg5"
   xml:space="preserve"
   inkscape:version="1.2.2 (b0a8486541, 2022-12-01)"
   sodipodi:docname="logo.svg"
   xmlns:inkscape="http://www.inkscape.org/namespaces/inkscape"
   xmlns:sodipodi="http://sodipodi.sourceforge.net/DTD/sodipodi-0.dtd"
   xmlns:xlink="http://www.w3.org/1999/xlink"
   xmlns="http://www.w3.org/2000/svg"
   xmlns:svg="http://www.w3.org/2000/svg"><sodipodi:namedview
     id="namedview7"
     pagecolor="#505050"
     bordercolor="#eeeeee"
     borderopacity="1"
     inkscape:showpageshadow="0"
     inkscape:pageopacity="0"
     inkscape:pagecheckerboard="0"
     inkscape:deskcolor="#505050"
     inkscape:document-units="px"
     showgrid="false"
     inkscape:zoom="0.457453"
     inkscape:cx="-292.92627"
     inkscape:cy="1829.6962"
     inkscape:window-width="3840"
     inkscape:window-height="2095"
     inkscape:window-x="0"
     inkscape:window-y="0"
     inkscape:window-maximized="1"
     inkscape:current-layer="layer1"><inkscape:page
       x="0"
       y="0"
       width="270.93332"
       height="270.93332"
       id="page2413" /><inkscape:page
       x="270.93333"
       y="0"
       width="458.03536"
       height="270.93333"
       id="page2415"
       inkscape:export-filename="../src/logic-scenes/startup/start_frame.png"
       inkscape:export-xdpi="96"
       inkscape:export-ydpi="96" /><inkscape:page
       x="0"
       y="332.70444"
       width="270.93329"
       height="270.93332"
       id="page1968" /></sodipodi:namedview><defs
     id="defs2"><clipPath
       clipPathUnits="userSpaceOnUse"
       id="clipPath2074"><rect
         style="fill:none;stroke:none;stroke-width:2.64583;stroke-linecap:round;stroke-linejoin:round;stroke-dasharray:none;stroke-opacity:1;paint-order:stroke markers fill"
         id="rect2076"
         width="270.93329"
         height="270.93329"
         x="0"
         y="332.70444" /></clipPath></defs><g
     inkscape:label="Layer 1"
     inkscape:groupmode="layer"
     id="layer1"><image
       width="862.41217"
       height="485.10687"
       preserveAspectRatio="none"
       xlink:href="logo_background.png"
       id="image175"
       x="-290.97296"
       y="234.38765"
       clip-path="url(#clipPath2074)"
       style="stroke-width:1.00012499;stroke-dasharray:none"
       inkscape:export-filename="../src/icon.png"
       inkscape:export-xdpi="24.000004"
       inkscape:export-ydpi="24.000004" /><text
       xml:space="preserve"
       style="font-style:normal;font-variant:normal;font-weight:300;font-stretch:normal;font-size:135.247px;line-height:0;font-family:'Big Shoulders Display';-inkscape-font-specification:'Big Shoulders Display Light';text-align:center;text-anchor:middle;fill:#ffffff;fill-opacity:1;stroke:none;stroke-width:3.38121"
       x="135.65341"
       y="156.78235"
       id="text314"><tspan
         sodipodi:role="line"
         style="font-style:normal;font-variant:normal;font-weight:300;font-stretch:normal;line-height:1;font-family:'Big Shoulders Display';-inkscape-font-specification:'Big Shoulders Display Light';text-align:center;letter-spacing:7.31577px;text-anchor:middle;fill:#ffffff;stroke-width:3.38121"
         x="135.65341"
         y="156.78235"
         id="tspan310" /><tspan
         sodipodi:role="line"
         style="font-style:normal;font-variant:normal;font-weight:normal;font-stretch:normal;font-size:97.5437px;line-height:0.8;font-family:'Big Shoulders Display';-inkscape-font-specification:'Big Shoulders Display';text-align:center;letter-spacing:3.52992px;text-anchor:middle;fill:#ffffff;stroke-width:3.38121"
         x="137.41838"
         y="251.28082"
         id="tspan312">of mind</tspan></text><text
       xml:space="preserve"
       style="font-style:normal;font-variant:normal;font-weight:normal;font-stretch:normal;font-size:178.191px;line-height:0;font-family:Gugi;-inkscape-font-specification:Gugi;text-align:center;letter-spacing:-4.41244px;text-anchor:middle;fill:#ffffff;fill-opacity:1;stroke:none;stroke-width:4.45479"
       x="121.3397"
       y="160.08495"
       id="text332"><tspan
         sodipodi:role="line"
         style="font-style:normal;font-variant:normal;font-weight:100;font-stretch:normal;font-size:178.191px;line-height:1;font-family:'Big Shoulders Display';-inkscape-font-specification:'Big Shoulders Display Thin';text-align:center;text-anchor:middle;fill:#ffffff;stroke-width:4.45479"
         x="119.13347"
         y="160.08495"
         id="tspan330">frame</tspan></text><circle
       style="fill:#ffffff;fill-opacity:1;stroke:none;stroke-width:0.882484;stroke-opacity:1"
       id="path1635"
       cx="245.53827"
       cy="27.336521"
       r="4.1062379" /><g
       id="g2097"
       transform="matrix(3.3353754,0,0,3.3353754,-329.651,634.39256)"
       style="stroke:#ffffff;stroke-opacity:1"><path
         style="fill:#ffffff;fill-opacity:1;stroke:none;stroke-width:0.23514px;stroke-linecap:butt;stroke-linejoin:miter;stroke-opacity:1"
         d="m 129.8471,-184.26728 c 0,0 3.50978,-0.42122 7.56209,1.07037 3.26933,1.20338 4.73639,-0.87261 6.89307,-1.10432 2.15669,-0.2317 3.61031,0.71099 2.9412,1.59922 -0.32958,0.43751 -1.30924,-0.0246 -1.17432,0.76746 0,0 2.92994,0.76538 2.87652,-1.15352 -0.0593,-2.12819 -3.71469,-2.27949 -6.80182,-1.43188 -4.00932,1.21878 -10.4608,-1.08963 -12.29674,0.25267 z"
         id="path394"
         sodipodi:nodetypes="cssscscc" /><path
         style="fill:#ffffff;fill-opacity:1;stroke:none;stroke-width:0.264583px;stroke-linecap:butt;stroke-linejoin:miter;stroke-opacity:1"
         d="m 114.5708,-185.99285 c 0,0 24.00764,0.66514 27.60521,0.41052 3.59756,-0.25461 17.09469,-0.74039 17.09469,-0.74039 z"
         id="path1637" /><path
         style="fill:#ffffff;fill-opacity:1;stroke:none;stroke-width:0.264583px;stroke-linecap:butt;stroke-linejoin:miter;stroke-opacity:1"
         d="m 168.24335,-185.40352 c 0,0 -6.16677,-0.35441 -6.81181,0.89267 -0.72196,1.39579 0.53144,1.56585 1.38206,0.91494 0.96586,-0.7391 2.3211,0.32849 2.05548,1.14367 0,0 -0.51774,-1.11927 -1.42486,-0.69647 -0.90712,0.4228 -4.11446,1.12837 -3.3748,-1.46264 0.54421,-1.90637 8.17393,-0.79217 8.17393,-0.79217 z"
         id="path1708"
         sodipodi:nodetypes="csscssc" /><path
         style="fill:#ffffff;fill-opacity:1;stroke:none;stroke-width:0.202538px;stroke-linecap:butt;stroke-linejoin:miter;stroke-opacity:1"
         d="m 155.17545,-185.23897 c -0.82592,-0.10662 -1.82503,2.18209 0.32665,2.28659 2.15169,0.1045 1.46066,-2.40411 0.32924,-2.19427 -0.45296,0.50512 1.26372,0.82332 0.20235,1.48777 -0.85319,0.53412 -2.10288,-0.44643 -0.85824,-1.58009 z"
         id="path1712"
         sodipodi:nodetypes="czcsc" /><path
         style="fill:#ffffff;fill-opacity:1;stroke:none;stroke-width:0.246305px;stroke-linecap:butt;stroke-linejoin:miter;stroke-opacity:1"
         d="m 152.56576,-183.94716 c 0,0 -2.93548,1.84732 -1.71897,3.48905 0.51556,0.69578 1.60078,0.37366 1.5596,-0.8963 -0.0367,-1.13159 1.74189,-1.43645 2.17155,-0.76383 0,0 -1.44009,-0.31272 -1.34275,0.61385 0.13361,1.27164 -1.90087,2.93279 -3.04579,1.56434 -1.85201,-2.21356 2.37636,-4.00711 2.37636,-4.00711 z"
         id="path2059"
         sodipodi:nodetypes="csscssc" /><path
         style="fill:#ffffff;fill-opacity:1;stroke:none;stroke-width:0.246305px;stroke-linecap:butt;stroke-linejoin:miter;stroke-opacity:1"
         d="m 156.60573,-181.79987 c -0.17911,0.76541 0.0413,3.16996 1.86988,2.25531 0.73416,-0.36723 1.46919,-1.93847 0.19066,-2.20722 -1.13924,-0.23946 -1.08686,-1.84 -0.36451,-2.09327 0,0 -0.32874,1.49789 0.61154,1.6287 1.29045,0.1795 1.323,2.33981 -0.17476,3.1207 -2.68185,1.39822 -2.67653,-2.07552 -2.13281,-2.70422 z"
         id="path2067"
         sodipodi:nodetypes="csscssc" /></g><g
       id="g2089"
       transform="matrix(3.3353754,0,0,3.3353754,-307.14512,650.48136)"
       style="stroke:none;stroke-opacity:1"><path
         style="fill:#ffffff;fill-opacity:1;stroke:none;stroke-width:0.23514px;stroke-linecap:butt;stroke-linejoin:miter;stroke-opacity:1"
         d="m 168.67362,-146.473 c 0,0 0.42122,-3.50978 -1.07037,-7.56209 -1.20338,-3.26933 0.87261,-4.73639 1.10432,-6.89307 0.2317,-2.15669 -0.71099,-3.61031 -1.59922,-2.9412 -0.43751,0.32958 0.0246,1.30924 -0.76746,1.17432 0,0 -0.76538,-2.92994 1.15352,-2.87652 2.12819,0.0593 2.27949,3.71469 1.43188,6.80182 -1.21878,4.00932 1.08963,10.4608 -0.25267,12.29674 z"
         id="path2071"
         sodipodi:nodetypes="cssscscc" /><path
         style="fill:#ffffff;fill-opacity:1;stroke:none;stroke-width:0.264583px;stroke-linecap:butt;stroke-linejoin:miter;stroke-opacity:1"
         d="m 170.58736,-130.82036 c 0,0 -0.66514,-24.00764 -0.41052,-27.60521 0.25461,-3.59756 0.74039,-17.09469 0.74039,-17.09469 z"
         id="path2073" /><path
         style="fill:#ffffff;fill-opacity:1;stroke:none;stroke-width:0.264583px;stroke-linecap:butt;stroke-linejoin:miter;stroke-opacity:1"
         d="m 169.99803,-184.03035 c 0,0 0.35441,6.16677 -0.89267,6.81181 -1.39579,0.72196 -1.56585,-0.53144 -0.91494,-1.38206 0.7391,-0.96586 -0.32849,-2.3211 -1.14367,-2.05548 0,0 1.11927,0.51774 0.69647,1.42486 -0.4228,0.90712 -1.12837,4.11446 1.46264,3.3748 1.90637,-0.54421 0.79217,-8.17393 0.79217,-8.17393 z"
         id="path2075"
         sodipodi:nodetypes="csscssc" /><path
         style="fill:#ffffff;fill-opacity:1;stroke:none;stroke-width:0.202538px;stroke-linecap:butt;stroke-linejoin:miter;stroke-opacity:1"
         d="m 169.83348,-171.80135 c 0.10662,0.82592 -2.18209,1.82503 -2.28659,-0.32665 -0.1045,-2.15169 2.40411,-1.46066 2.19427,-0.32924 -0.50512,0.45296 -0.82332,-1.26372 -1.48777,-0.20235 -0.53412,0.85319 0.44643,2.10288 1.58009,0.85824 z"
         id="path2077"
         sodipodi:nodetypes="czcsc" /><path
         style="fill:#ffffff;fill-opacity:1;stroke:none;stroke-width:0.246305px;stroke-linecap:butt;stroke-linejoin:miter;stroke-opacity:1"
         d="m 168.3535,-169.37983 c 0,0 -1.84732,2.93548 -3.48905,1.71897 -0.69578,-0.51556 -0.37366,-1.60078 0.8963,-1.5596 1.13159,0.0367 1.43645,-1.74189 0.76383,-2.17155 0,0 0.31272,1.44009 -0.61385,1.34275 -1.27164,-0.13361 -2.93279,1.90087 -1.56434,3.04579 2.21356,1.85201 4.00711,-2.37636 4.00711,-2.37636 z"
         id="path2079"
         sodipodi:nodetypes="csscssc" /><path
         style="fill:#ffffff;fill-opacity:1;stroke:none;stroke-width:0.246305px;stroke-linecap:butt;stroke-linejoin:miter;stroke-opacity:1"
         d="m 166.39438,-172.66712 c -0.76541,0.17911 -3.16996,-0.0413 -2.25531,-1.86988 0.36723,-0.73416 1.93847,-1.46919 2.20722,-0.19066 0.23946,1.13924 1.84,1.08686 2.09327,0.36451 0,0 -1.49789,0.32874 -1.6287,-0.61154 -0.1795,-1.29045 -2.33981,-1.323 -3.1207,0.17476 -1.39822,2.68185 2.07552,2.67653 2.70422,2.13281 z"
         id="path2081"
         sodipodi:nodetypes="csscssc" /></g><g
       id="g2528"
       transform="translate(0.93487954,-1.1468082)"><g
         id="g2431"
         transform="matrix(2.5075222,0,0,2.5075222,287.81107,474.05863)"><path
           style="fill:#ffffff;fill-opacity:1;stroke:none;stroke-width:0.23514px;stroke-linecap:butt;stroke-linejoin:miter;stroke-opacity:1"
           d="m 136.84022,-185.19405 c 0,0 3.38652,-0.37028 7.57472,0.75267 3.36492,0.90221 4.86755,-0.77048 7.02423,-1.00219 2.15669,-0.2317 3.75905,1.02758 3.08994,1.91581 -0.32958,0.43751 -1.60177,-0.12562 -1.46685,0.66644 0,0 2.92994,0.76538 2.87652,-1.15352 -0.0593,-2.12819 -3.71469,-2.27949 -6.80182,-1.43188 -4.00932,1.21878 -10.4608,-1.08963 -12.29674,0.25267 z"
           id="path2419"
           sodipodi:nodetypes="cssscscc" /><path
           style="fill:#ffffff;fill-opacity:1;stroke:none;stroke-width:0.290053px;stroke-linecap:butt;stroke-linejoin:miter;stroke-opacity:1"
           d="m 111.23147,-186.65511 c 0,0 28.85236,0.66514 33.17592,0.41052 4.32355,-0.25461 20.54439,-0.74039 20.54439,-0.74039 z"
           id="path2421" /><path
           style="fill:#ffffff;fill-opacity:1;stroke:none;stroke-width:0.282531px;stroke-linecap:butt;stroke-linejoin:miter;stroke-opacity:1"
           d="m 167.40445,-185.81749 c 0,0 -6.57675,-0.46232 -7.22179,0.95969 -0.72196,1.59158 0.94142,1.84368 1.79204,1.10147 0.96586,-0.84277 2.3211,0.37457 2.05548,1.30409 0,0 -0.51774,-1.27627 -1.42486,-0.79416 -0.90712,0.4821 -4.11446,1.28664 -3.3748,-1.66781 0.54421,-2.17377 8.17393,-0.90328 8.17393,-0.90328 z"
           id="path2423"
           sodipodi:nodetypes="csscssc" /><path
           style="fill:#ffffff;fill-opacity:1;stroke:none;stroke-width:0.202538px;stroke-linecap:butt;stroke-linejoin:miter;stroke-opacity:1"
           d="m 157.28666,-183.23281 c -0.82592,-0.10662 -1.82503,2.18209 0.32665,2.28659 2.15169,0.1045 1.46066,-2.40411 0.32924,-2.19427 -0.45296,0.50512 1.26372,0.82332 0.20235,1.48777 -0.85319,0.53412 -2.10288,-0.44643 -0.85824,-1.58009 z"
           id="path2425"
           sodipodi:nodetypes="czcsc" /></g><g
         id="g2504"
         transform="matrix(0,-2.5075222,-2.5075222,0,254.34141,437.23496)"><path
           style="fill:#ffffff;fill-opacity:1;stroke:none;stroke-width:0.23514px;stroke-linecap:butt;stroke-linejoin:miter;stroke-opacity:1"
           d="m 136.84022,-185.19405 c 0,0 3.38652,-0.37028 7.57472,0.75267 3.36492,0.90221 4.86755,-0.77048 7.02423,-1.00219 2.15669,-0.2317 3.75905,1.02758 3.08994,1.91581 -0.32958,0.43751 -1.60177,-0.12562 -1.46685,0.66644 0,0 2.92994,0.76538 2.87652,-1.15352 -0.0593,-2.12819 -3.71469,-2.27949 -6.80182,-1.43188 -4.00932,1.21878 -10.4608,-1.08963 -12.29674,0.25267 z"
           id="path2496"
           sodipodi:nodetypes="cssscscc" /><path
           style="fill:#ffffff;fill-opacity:1;stroke:none;stroke-width:0.290053px;stroke-linecap:butt;stroke-linejoin:miter;stroke-opacity:1"
           d="m 111.23147,-186.65511 c 0,0 28.85236,0.66514 33.17592,0.41052 4.32355,-0.25461 20.54439,-0.74039 20.54439,-0.74039 z"
           id="path2498" /><path
           style="fill:#ffffff;fill-opacity:1;stroke:none;stroke-width:0.282531px;stroke-linecap:butt;stroke-linejoin:miter;stroke-opacity:1"
           d="m 167.40445,-185.81749 c 0,0 -6.57675,-0.46232 -7.22179,0.95969 -0.72196,1.59158 0.94142,1.84368 1.79204,1.10147 0.96586,-0.84277 2.3211,0.37457 2.05548,1.30409 0,0 -0.51774,-1.27627 -1.42486,-0.79416 -0.90712,0.4821 -4.11446,1.28664 -3.3748,-1.66781 0.54421,-2.17377 8.17393,-0.90328 8.17393,-0.90328 z"
           id="path2500"
           sodipodi:nodetypes="csscssc" /><path
           style="fill:#ffffff;fill-opacity:1;stroke:none;stroke-width:0.202538px;stroke-linecap:butt;stroke-linejoin:miter;stroke-opacity:1"
           d="m 157.28666,-183.23281 c -0.82592,-0.10662 -1.82503,2.18209 0.32665,2.28659 2.15169,0.1045 1.46066,-2.40411 0.32924,-2.19427 -0.45296,0.50512 1.26372,0.82332 0.20235,1.48777 -0.85319,0.53412 -2.10288,-0.44643 -0.85824,-1.58009 z"
           id="path2502"
           sodipodi:nodetypes="czcsc" /></g></g><path
       style="fill:#ffffff;fill-opacity:1;stroke:none;stroke-width:0.727314px;stroke-linecap:butt;stroke-linejoin:miter;stroke-opacity:1"
       d="m 294.87353,263.97819 c 0,0 76.27558,1.9976 87.11701,1.35914 10.84139,-0.63844 56.70852,-2.8639 56.70852,-2.8639 z"
       id="path2532"
       sodipodi:nodetypes="cscc" /><path
       style="fill:#ffffff;fill-opacity:1;stroke:none;stroke-width:1.02858px;stroke-linecap:butt;stroke-linejoin:miter;stroke-opacity:1"
       d="m 686.53916,262.31401 c 0,0 -97.25796,-2.2385 -98.94507,-0.96158 -1.68737,1.27688 -23.89988,2.6159 -23.89988,2.6159 z"
       id="path2566"
       sodipodi:nodetypes="cccc" /><path
       style="fill:#ffffff;fill-opacity:1;stroke:none;stroke-width:0.589619px;stroke-linecap:butt;stroke-linejoin:miter;stroke-opacity:1"
       d="m 492.05767,260.21072 c 0,0 -7.75225,1.29197 -19.6306,-1.07067 -9.54342,-1.89822 -10.7973,2.45388 -15.74022,3.26639 -4.94296,0.81248 -10.68976,-2.16989 -10.3392,-4.46708 0.17268,-1.13151 4.10253,0.14238 2.6245,-1.82739 0,0 -8.28045,-1.60221 -5.36896,3.19929 3.22916,5.32518 12.39535,5.31096 18.72312,2.85539 8.04704,-3.48464 27.18289,1.60434 29.73136,-1.95593 z"
       id="path2496-3"
       sodipodi:nodetypes="cssscscc" /><path
       style="fill:#ffffff;fill-opacity:1;stroke:none;stroke-width:0.790391px;stroke-linecap:butt;stroke-linejoin:miter;stroke-opacity:1"
       d="m 500.90011,261.83345 c 2.25506,2.34011 10.88266,-2.19183 4.58498,-7.76062 -6.29769,-5.56882 -10.31479,3.7571 -6.35713,5.87896 2.61203,-0.43296 -1.83944,-5.59106 3.01424,-5.02459 3.90164,0.45537 5.31468,6.49102 -1.24209,6.90625 z"
       id="path2425-7"
       sodipodi:nodetypes="czcsc" /><path
       style="fill:#ffffff;fill-opacity:1;stroke:none;stroke-width:0.589619px;stroke-linecap:butt;stroke-linejoin:miter;stroke-opacity:1"
       d="m 512.46029,260.21072 c 0,0 8.41523,1.15828 19.05726,-1.07067 10.59167,-2.2184 13.44211,2.51101 18.82013,3.32352 5.37804,0.81248 8.19702,-2.22702 6.61631,-4.52421 -0.7786,-1.13151 -3.49658,1.06372 -3.07337,-0.90605 0,0 6.89276,-2.52355 6.55249,2.27795 -0.37751,5.32518 -9.55132,5.31096 -17.19405,2.85539 -9.91308,-3.48464 -26.32376,1.60434 -30.77877,-1.95593 z"
       id="path2664"
       sodipodi:nodetypes="cssscscc" /><rect
       style="fill:none;stroke:#ffffff;stroke-width:2.64583;stroke-linecap:round;stroke-linejoin:round;stroke-dasharray:none;stroke-opacity:1;paint-order:stroke markers fill"
       id="rect389"
       width="248.28244"
       height="248.28244"
       x="138.2319"
       y="287.21146"
       transform="rotate(16.410955)" /><text
       xml:space="preserve"
       style="font-style:normal;font-variant:normal;font-weight:bold;font-stretch:normal;font-size:106.825px;line-height:0;font-family:'Big Shoulders Display';-inkscape-font-specification:'Big Shoulders Display Bold';text-align:center;text-anchor:middle;fill:#ffffff;fill-opacity:1;stroke:none;stroke-width:2.67065"
       x="133.76439"
       y="482.51157"
       id="text2082"><tspan
         sodipodi:role="line"
         style="font-style:normal;font-variant:normal;font-weight:bold;font-stretch:normal;line-height:1;font-family:'Big Shoulders Display';-inkscape-font-specification:'Big Shoulders Display Bold';text-align:center;letter-spacing:5.77838px;text-anchor:middle;fill:#ffffff;stroke-width:2.67065"
         x="133.76439"
         y="482.51157"
         id="tspan2078" /><tspan
         sodipodi:role="line"
         style="font-style:normal;font-variant:normal;font-weight:bold;font-stretch:normal;font-size:77.0452px;line-height:0.8;font-family:'Big Shoulders Display';-inkscape-font-specification:'Big Shoulders Display Bold';text-align:center;letter-spacing:0px;text-anchor:middle;fill:#ffffff;stroke-width:2.67065"
         x="133.76439"
         y="557.15143"
         id="tspan2080">of mind</tspan></text><text
       xml:space="preserve"
       style="font-style:normal;font-variant:normal;font-weight:200;font-stretch:normal;font-size:151.906px;line-height:0;font-family:'Big Shoulders Display';-inkscape-font-specification:'Big Shoulders Display Ultra-Light';text-align:center;letter-spacing:-3.76157px;text-anchor:middle;fill:#ffffff;fill-opacity:1;stroke:none;stroke-width:3.79767"
       x="77.524452"
       y="488.66736"
       id="text2086"><tspan
         sodipodi:role="line"
         style="font-style:normal;font-variant:normal;font-weight:200;font-stretch:normal;font-size:151.906px;line-height:1;font-family:'Big Shoulders Display';-inkscape-font-specification:'Big Shoulders Display Ultra-Light';text-align:center;text-anchor:middle;fill:#ffffff;stroke-width:3.79767"
         x="75.643265"
         y="488.66736"
         id="tspan2084">fr<tspan
   style="letter-spacing:-3.76237px"
   id="tspan2118">a</tspan></tspan></text><circle
       style="fill:#ffffff;fill-opacity:1;stroke:#ffffff;stroke-width:0.75231;stroke-opacity:1"
       id="circle2088"
       cx="229.79199"
       cy="378.80734"
       r="3.5005322" /><g
       id="g2102"
       transform="matrix(2.8433786,0,0,2.8433786,-260.55187,896.31734)"
       style="stroke:#ffffff;stroke-opacity:1"><path
         style="fill:#ffffff;fill-opacity:1;stroke:#ffffff;stroke-width:0.23514px;stroke-linecap:butt;stroke-linejoin:miter;stroke-opacity:1"
         d="m 129.8471,-184.26728 c 0,0 3.50978,-0.42122 7.56209,1.07037 3.26933,1.20338 4.73639,-0.87261 6.89307,-1.10432 2.15669,-0.2317 3.61031,0.71099 2.9412,1.59922 -0.32958,0.43751 -1.30924,-0.0246 -1.17432,0.76746 0,0 2.92994,0.76538 2.87652,-1.15352 -0.0593,-2.12819 -3.71469,-2.27949 -6.80182,-1.43188 -4.00932,1.21878 -10.4608,-1.08963 -12.29674,0.25267 z"
         id="path2090"
         sodipodi:nodetypes="cssscscc" /><path
         style="fill:#ffffff;fill-opacity:1;stroke:#ffffff;stroke-width:0.264583px;stroke-linecap:butt;stroke-linejoin:miter;stroke-opacity:1"
         d="m 114.5708,-185.99285 c 0,0 24.00764,0.66514 27.60521,0.41052 3.59756,-0.25461 17.09469,-0.74039 17.09469,-0.74039 z"
         id="path2092" /><path
         style="fill:#ffffff;fill-opacity:1;stroke:#ffffff;stroke-width:0.264583px;stroke-linecap:butt;stroke-linejoin:miter;stroke-opacity:1"
         d="m 168.24335,-185.40352 c 0,0 -6.16677,-0.35441 -6.81181,0.89267 -0.72196,1.39579 0.53144,1.56585 1.38206,0.91494 0.96586,-0.7391 2.3211,0.32849 2.05548,1.14367 0,0 -0.51774,-1.11927 -1.42486,-0.69647 -0.90712,0.4228 -4.11446,1.12837 -3.3748,-1.46264 0.54421,-1.90637 8.17393,-0.79217 8.17393,-0.79217 z"
         id="path2094"
         sodipodi:nodetypes="csscssc" /><path
         style="fill:#ffffff;fill-opacity:1;stroke:#ffffff;stroke-width:0.202538px;stroke-linecap:butt;stroke-linejoin:miter;stroke-opacity:1"
         d="m 155.17545,-185.23897 c -0.82592,-0.10662 -1.82503,2.18209 0.32665,2.28659 2.15169,0.1045 1.46066,-2.40411 0.32924,-2.19427 -0.45296,0.50512 1.26372,0.82332 0.20235,1.48777 -0.85319,0.53412 -2.10288,-0.44643 -0.85824,-1.58009 z"
         id="path2096"
         sodipodi:nodetypes="czcsc" /><path
         style="fill:#ffffff;fill-opacity:1;stroke:#ffffff;stroke-width:0.246305px;stroke-linecap:butt;stroke-linejoin:miter;stroke-opacity:1"
         d="m 152.56576,-183.94716 c 0,0 -2.93548,1.84732 -1.71897,3.48905 0.51556,0.69578 1.60078,0.37366 1.5596,-0.8963 -0.0367,-1.13159 1.74189,-1.43645 2.17155,-0.76383 0,0 -1.44009,-0.31272 -1.34275,0.61385 0.13361,1.27164 -1.90087,2.93279 -3.04579,1.56434 -1.85201,-2.21356 2.37636,-4.00711 2.37636,-4.00711 z"
         id="path2098"
         sodipodi:nodetypes="csscssc" /><path
         style="fill:#ffffff;fill-opacity:1;stroke:#ffffff;stroke-width:0.246305px;stroke-linecap:butt;stroke-linejoin:miter;stroke-opacity:1"
         d="m 156.60573,-181.79987 c -0.17911,0.76541 0.0413,3.16996 1.86988,2.25531 0.73416,-0.36723 1.46919,-1.93847 0.19066,-2.20722 -1.13924,-0.23946 -1.08686,-1.84 -0.36451,-2.09327 0,0 -0.32874,1.49789 0.61154,1.6287 1.29045,0.1795 1.323,2.33981 -0.17476,3.1207 -2.68185,1.39822 -2.67653,-2.07552 -2.13281,-2.70422 z"
         id="path2100"
         sodipodi:nodetypes="csscssc" /></g><g
       id="g2116"
       transform="matrix(2.8433786,0,0,2.8433786,-241.3658,910.0329)"
       style="stroke:#ffffff;stroke-opacity:1"><path
         style="fill:#ffffff;fill-opacity:1;stroke:#ffffff;stroke-width:0.23514px;stroke-linecap:butt;stroke-linejoin:miter;stroke-opacity:1"
         d="m 168.67362,-146.473 c 0,0 0.42122,-3.50978 -1.07037,-7.56209 -1.20338,-3.26933 0.87261,-4.73639 1.10432,-6.89307 0.2317,-2.15669 -0.71099,-3.61031 -1.59922,-2.9412 -0.43751,0.32958 0.0246,1.30924 -0.76746,1.17432 0,0 -0.76538,-2.92994 1.15352,-2.87652 2.12819,0.0593 2.27949,3.71469 1.43188,6.80182 -1.21878,4.00932 1.08963,10.4608 -0.25267,12.29674 z"
         id="path2104"
         sodipodi:nodetypes="cssscscc" /><path
         style="fill:#ffffff;fill-opacity:1;stroke:#ffffff;stroke-width:0.264583px;stroke-linecap:butt;stroke-linejoin:miter;stroke-opacity:1"
         d="m 170.58736,-130.82036 c 0,0 -0.66514,-24.00764 -0.41052,-27.60521 0.25461,-3.59756 0.74039,-17.09469 0.74039,-17.09469 z"
         id="path2106" /><path
         style="fill:#ffffff;fill-opacity:1;stroke:#ffffff;stroke-width:0.264583px;stroke-linecap:butt;stroke-linejoin:miter;stroke-opacity:1"
         d="m 169.99803,-184.03035 c 0,0 0.35441,6.16677 -0.89267,6.81181 -1.39579,0.72196 -1.56585,-0.53144 -0.91494,-1.38206 0.7391,-0.96586 -0.32849,-2.3211 -1.14367,-2.05548 0,0 1.11927,0.51774 0.69647,1.42486 -0.4228,0.90712 -1.12837,4.11446 1.46264,3.3748 1.90637,-0.54421 0.79217,-8.17393 0.79217,-8.17393 z"
         id="path2108"
         sodipodi:nodetypes="csscssc" /><path
         style="fill:#ffffff;fill-opacity:1;stroke:#ffffff;stroke-width:0.202538px;stroke-linecap:butt;stroke-linejoin:miter;stroke-opacity:1"
         d="m 169.83348,-171.80135 c 0.10662,0.82592 -2.18209,1.82503 -2.28659,-0.32665 -0.1045,-2.15169 2.40411,-1.46066 2.19427,-0.32924 -0.50512,0.45296 -0.82332,-1.26372 -1.48777,-0.20235 -0.53412,0.85319 0.44643,2.10288 1.58009,0.85824 z"
         id="path2110"
         sodipodi:nodetypes="czcsc" /><path
         style="fill:#ffffff;fill-opacity:1;stroke:#ffffff;stroke-width:0.246305px;stroke-linecap:butt;stroke-linejoin:miter;stroke-opacity:1"
         d="m 168.3535,-169.37983 c 0,0 -1.84732,2.93548 -3.48905,1.71897 -0.69578,-0.51556 -0.37366,-1.60078 0.8963,-1.5596 1.13159,0.0367 1.43645,-1.74189 0.76383,-2.17155 0,0 0.31272,1.44009 -0.61385,1.34275 -1.27164,-0.13361 -2.93279,1.90087 -1.56434,3.04579 2.21356,1.85201 4.00711,-2.37636 4.00711,-2.37636 z"
         id="path2112"
         sodipodi:nodetypes="csscssc" /><path
         style="fill:#ffffff;fill-opacity:1;stroke:#ffffff;stroke-width:0.246305px;stroke-linecap:butt;stroke-linejoin:miter;stroke-opacity:1"
         d="m 166.39438,-172.66712 c -0.76541,0.17911 -3.16996,-0.0413 -2.25531,-1.86988 0.36723,-0.73416 1.93847,-1.46919 2.20722,-0.19066 0.23946,1.13924 1.84,1.08686 2.09327,0.36451 0,0 -1.49789,0.32874 -1.6287,-0.61154 -0.1795,-1.29045 -2.33981,-1.323 -3.1207,0.17476 -1.39822,2.68185 2.07552,2.67653 2.70422,2.13281 z"
         id="path2114"
         sodipodi:nodetypes="csscssc" /></g><text
       xml:space="preserve"
       style="font-style:normal;font-variant:normal;font-weight:200;font-stretch:normal;font-size:151.906px;line-height:0;font-family:'Big Shoulders Display';-inkscape-font-specification:'Big Shoulders Display Ultra-Light';text-align:center;letter-spacing:-7.9375px;text-anchor:middle;fill:#ffffff;fill-opacity:1;stroke:none;stroke-width:3.79767"
       x="170.86035"
       y="488.66736"
       id="text2124"><tspan
         sodipodi:role="line"
         style="font-style:normal;font-variant:normal;font-weight:200;font-stretch:normal;font-size:151.906px;line-height:1;font-family:'Big Shoulders Display';-inkscape-font-specification:'Big Shoulders Display Ultra-Light';text-align:center;text-anchor:middle;fill:#ffffff;stroke-width:3.79767"
         x="166.8916"
         y="488.66736"
         id="tspan2122"><tspan
           id="tspan2120">me</tspan></tspan></text></g></svg>
